{
    "type":"object",
    "properties":{
        "name":{
            "type":"string"
        },
        "project":{
            "type":"array",
            "items":{
                "type":"object",
                "properties":{
                    "job":{
                        "type":"array",
                        "items":{
                            "type":"object",
                            "properties":{
                                "successor":{
                                    "type":"array",
                                    "items":{
                                        "type":"integer"
                                    }
                                },
                            "mode":{
                                "type":"array",
                                "items":{
                                    "type":"object",
                                    "properties":{
                                        "duration":{
                                            "type":"integer"
                                        },
                                        "resourceRequest":{
                                            "type":"array",
                                            "items":{
                                                "type":"integer"
                                            }
                                        },
                                    "id":{
                                        "type":"integer"
                                    }
                                }
                            }
                    },
            "id":{
                "type":"integer"
            },
            "numModes":{
                "type":"integer"
            },
            "numSuccessors":{
                "type":"integer"
            }
        }
    }
},
"resource":{
    "type":"array",
    "items":{
        "type":"object",
        "properties":{
            "capacity":{
                "type":"integer"
            },
            "renewable":{
                "type":"boolean",
                "required":true
            },
            "id":{
                "type":"integer"
            },
            "name":{
                "type":"string"
            }
        }
    }
},
"id":{
    "type":"integer"
},
"name":{
    "type":"string"
},
"numJobs":{
    "type":"integer"
},
"numRenewableResources":{
    "type":"integer"
},
"numNonRenewableResources":{
    "type":"integer"
},
"numDoublyConstrainedResources":{
    "type":"integer"
},
"timeHorizon":{
    "type":"integer"
},
"relDate":{
    "type":"integer"
},
"dueDate":{
    "type":"integer"
},
"tardCost":{
    "type":"integer"
},
"mpmtime":{
    "type":"integer"
}
}
}
},
"author":{
    "type":"string"
},
"version":{
    "type":"integer"
},
"url":{
    "type":"string"
}
}
}